FIFO_tb.vcd
$date
	Sun Dec 15 22:15:26 2024
$end
$version
	Icarus Verilog
$end
$timescale
	1ns
$end
$scope module FIFO_tb $end
$var wire 5 ! count [4:0] $end
$var wire 8 " data_out [7:0] $end
$var wire 1 # empty $end
$var wire 1 $ full $end
$var wire 1 % near_empty $end
$var wire 1 & near_full $end
$var wire 1 ' overflow $end
$var wire 1 ( underflow $end
$var wire 1 ) valid $end
$var reg 1 * clk $end
$var reg 8 + data_in [7:0] $end
$var integer 32 , i [31:0] $end
$var reg 1 - rd_en $end
$var reg 1 . rst $end
$var reg 1 / wr_en $end
$scope module FIFO32 $end
$var wire 1 0 clk $end
$var wire 5 1 count [4:0] $end
$var wire 8 2 data_in [7:0] $end
$var wire 1 # empty $end
$var wire 1 $ full $end
$var wire 1 % near_empty $end
$var wire 1 & near_full $end
$var wire 1 3 rd_en $end
$var wire 1 4 rst $end
$var wire 1 ) valid $end
$var wire 1 5 wr_en $end
$var reg 8 6 data_out [7:0] $end
$var integer 32 7 i [31:0] $end
$var reg 1 8 overflow $end
$var reg 5 9 rd_pos [4:0] $end
$var reg 1 : underflow $end
$var reg 5 ; wr_pos [4:0] $end
$upscope $end
$upscope $end
$enddefinitions $end
#0
$dumpvars
b0 ;
0:
b0 9
08
b100000 7
b0 6
x5
04
x3
bx 2
b0 1
00
x/
0.
x-
bx ,
bx +
0*
0)
0(
0'
0&
0%
0$
1#
b0 "
b0 !
$end
#20
b100000 7
1*
10
#40
b1 ,
b0 +
b0 2
1.
14
0-
03
1/
15
0*
00
#60
1%
b1 ;
0#
b1 !
b1 1
1*
10
#80
b10 ,
b1 +
b1 2
0*
00
#100
b10 ;
b10 !
b10 1
1*
10
#120
b11 ,
b10 +
b10 2
0*
00
#140
0%
b11 ;
b11 !
b11 1
1*
10
#160
b100 ,
b11 +
b11 2
0*
00
#180
b100 ;
b100 !
b100 1
1*
10
#200
b101 ,
b100 +
b100 2
0*
00
#220
b101 ;
b101 !
b101 1
1*
10
#240
b110 ,
b101 +
b101 2
0*
00
#260
b110 ;
b110 !
b110 1
1*
10
#280
b111 ,
b110 +
b110 2
0*
00
#300
b111 ;
b111 !
b111 1
1*
10
#320
b1000 ,
b111 +
b111 2
0*
00
#340
b1000 ;
b1000 !
b1000 1
1*
10
#360
b1001 ,
b1000 +
b1000 2
0*
00
#380
b1001 ;
b1001 !
b1001 1
1*
10
#400
b1010 ,
b1001 +
b1001 2
0*
00
#420
b1010 ;
b1010 !
b1010 1
1*
10
#440
b1011 ,
b1010 +
b1010 2
0*
00
#460
b1011 ;
b1011 !
b1011 1
1*
10
#480
b1100 ,
b1011 +
b1011 2
0*
00
#500
b1100 ;
b1100 !
b1100 1
1*
10
#520
b1101 ,
b1100 +
b1100 2
0*
00
#540
b1101 ;
b1101 !
b1101 1
1*
10
#560
b1110 ,
b1101 +
b1101 2
0*
00
#580
b1110 ;
b1110 !
b1110 1
1*
10
#600
b1111 ,
b1110 +
b1110 2
0*
00
#620
b1111 ;
b1111 !
b1111 1
1*
10
#640
b10000 ,
b1111 +
b1111 2
0*
00
#660
b10000 ;
b10000 !
b10000 1
1*
10
#680
b10001 ,
b10000 +
b10000 2
0*
00
#700
b10001 ;
b10001 !
b10001 1
1*
10
#720
b10010 ,
b10001 +
b10001 2
0*
00
#740
b10010 ;
b10010 !
b10010 1
1*
10
#760
b10011 ,
b10010 +
b10010 2
0*
00
#780
b10011 ;
b10011 !
b10011 1
1*
10
#800
b10100 ,
b10011 +
b10011 2
0*
00
#820
b10100 ;
b10100 !
b10100 1
1*
10
#840
b10101 ,
b10100 +
b10100 2
0*
00
#860
b10101 ;
b10101 !
b10101 1
1*
10
#880
b10110 ,
b10101 +
b10101 2
0*
00
#900
b10110 ;
b10110 !
b10110 1
1*
10
#920
b10111 ,
b10110 +
b10110 2
0*
00
#940
b10111 ;
b10111 !
b10111 1
1*
10
#960
b11000 ,
b10111 +
b10111 2
0*
00
#980
b11000 ;
b11000 !
b11000 1
1*
10
#1000
b11001 ,
b11000 +
b11000 2
0*
00
#1020
b11001 ;
b11001 !
b11001 1
1*
10
#1040
b11010 ,
b11001 +
b11001 2
0*
00
#1060
b11010 ;
b11010 !
b11010 1
1*
10
#1080
b11011 ,
b11010 +
b11010 2
0*
00
#1100
b11011 ;
b11011 !
b11011 1
1*
10
#1120
b11100 ,
b11011 +
b11011 2
0*
00
#1140
b11100 ;
b11100 !
b11100 1
1*
10
#1160
b11101 ,
b11100 +
b11100 2
0*
00
#1180
1&
b11101 ;
b11101 !
b11101 1
1*
10
#1200
b11110 ,
b11101 +
b11101 2
0*
00
#1220
b11110 ;
b11110 !
b11110 1
1*
10
#1240
b11111 ,
b11110 +
b11110 2
0*
00
#1260
0&
b11111 ;
1$
b11111 !
b11111 1
1*
10
#1280
b100000 ,
b11111 +
b11111 2
0*
00
#1300
18
1'
1*
10
#1320
0*
00
#1340
1*
10
#1360
1)
b1 ,
1-
13
0/
05
0*
00
#1380
1&
b1 9
0$
b11110 !
b11110 1
08
0'
1*
10
#1400
b10 ,
0*
00
#1420
b10 9
b11101 !
b11101 1
b1 6
b1 "
1*
10
#1440
b11 ,
0*
00
#1460
0&
b11 9
b11100 !
b11100 1
b10 6
b10 "
1*
10
#1480
b100 ,
0*
00
#1500
b100 9
b11011 !
b11011 1
b11 6
b11 "
1*
10
#1520
b101 ,
0*
00
#1540
b101 9
b11010 !
b11010 1
b100 6
b100 "
1*
10
#1560
b110 ,
0*
00
#1580
b110 9
b11001 !
b11001 1
b101 6
b101 "
1*
10
#1600
b111 ,
0*
00
#1620
b111 9
b11000 !
b11000 1
b110 6
b110 "
1*
10
#1640
b1000 ,
0*
00
#1660
b1000 9
b10111 !
b10111 1
b111 6
b111 "
1*
10
#1680
b1001 ,
0*
00
#1700
b1001 9
b10110 !
b10110 1
b1000 6
b1000 "
1*
10
#1720
b1010 ,
0*
00
#1740
b1010 9
b10101 !
b10101 1
b1001 6
b1001 "
1*
10
#1760
b1011 ,
0*
00
#1780
b1011 9
b10100 !
b10100 1
b1010 6
b1010 "
1*
10
#1800
b1100 ,
0*
00
#1820
b1100 9
b10011 !
b10011 1
b1011 6
b1011 "
1*
10
#1840
b1101 ,
0*
00
#1860
b1101 9
b10010 !
b10010 1
b1100 6
b1100 "
1*
10
#1880
b1110 ,
0*
00
#1900
b1110 9
b10001 !
b10001 1
b1101 6
b1101 "
1*
10
#1920
b1111 ,
0*
00
#1940
b1111 9
b10000 !
b10000 1
b1110 6
b1110 "
1*
10
#1960
b10000 ,
0*
00
#1980
b10000 9
b1111 !
b1111 1
b1111 6
b1111 "
1*
10
#2000
b10001 ,
0*
00
#2020
b10001 9
b1110 !
b1110 1
b10000 6
b10000 "
1*
10
#2040
b10010 ,
0*
00
#2060
b10010 9
b1101 !
b1101 1
b10001 6
b10001 "
1*
10
#2080
b10011 ,
0*
00
#2100
b10011 9
b1100 !
b1100 1
b10010 6
b10010 "
1*
10
#2120
b10100 ,
0*
00
#2140
b10100 9
b1011 !
b1011 1
b10011 6
b10011 "
1*
10
#2160
b10101 ,
0*
00
#2180
b10101 9
b1010 !
b1010 1
b10100 6
b10100 "
1*
10
#2200
b10110 ,
0*
00
#2220
b10110 9
b1001 !
b1001 1
b10101 6
b10101 "
1*
10
#2240
b10111 ,
0*
00
#2260
b10111 9
b1000 !
b1000 1
b10110 6
b10110 "
1*
10
#2280
b11000 ,
0*
00
#2300
b11000 9
b111 !
b111 1
b10111 6
b10111 "
1*
10
#2320
b11001 ,
0*
00
#2340
b11001 9
b110 !
b110 1
b11000 6
b11000 "
1*
10
#2360
b11010 ,
0*
00
#2380
b11010 9
b101 !
b101 1
b11001 6
b11001 "
1*
10
#2400
b11011 ,
0*
00
#2420
b11011 9
b100 !
b100 1
b11010 6
b11010 "
1*
10
#2440
b11100 ,
0*
00
#2460
b11100 9
b11 !
b11 1
b11011 6
b11011 "
1*
10
#2480
b11101 ,
0*
00
#2500
1%
b11101 9
b10 !
b10 1
b11100 6
b11100 "
1*
10
#2520
b11110 ,
0*
00
#2540
b11110 9
b1 !
b1 1
b11101 6
b11101 "
1*
10
#2560
b11111 ,
0*
00
#2580
0%
0)
b11111 9
1#
b0 !
b0 1
b11110 6
b11110 "
1*
10
#2600
b100000 ,
0*
00
#2620
1:
1(
1*
10
#2640
b100001 ,
0*
00
#2660
1*
10
#2680
b100010 ,
0*
00
#2700
1*
10
#2720
b100011 ,
0*
00
#2740
1*
10
#2760
b100100 ,
0*
00
#2780
1*
10
#2800
b100101 ,
0*
00
#2820
1*
10
#2840
b100110 ,
0*
00
#2860
1*
10
#2880
b100111 ,
0*
00
#2900
1*
10
#2920
b101000 ,
0*
00
#2940
1*
10
#2960
b101001 ,
0*
00
#2980
1*
10
#3000
b101010 ,
0*
00
#3020
1*
10
#3040
b101011 ,
0*
00
#3060
1*
10
#3080
b101100 ,
0*
00
#3100
1*
10
#3120
b101101 ,
0*
00
#3140
1*
10
#3160
b101110 ,
0*
00
#3180
1*
10
#3200
b101111 ,
0*
00
#3220
1*
10
#3240
b110000 ,
0*
00
#3260
1*
10
#3280
b110001 ,
0*
00
#3300
1*
10
#3320
b110010 ,
0*
00
#3340
1*
10
#3360
b110011 ,
0*
00
#3380
1*
10
#3400
b110100 ,
0*
00
#3420
1*
10
#3440
b110101 ,
0*
00
#3460
1*
10
#3480
b110110 ,
0*
00
#3500
1*
10
#3520
b110111 ,
0*
00
#3540
1*
10
#3560
b111000 ,
0*
00
#3580
1*
10
#3600
b111001 ,
0*
00
#3620
1*
10
#3640
b111010 ,
0*
00
#3660
1*
10
#3680
b111011 ,
0*
00
#3700
1*
10
#3720
b111100 ,
0*
00
#3740
1*
10
#3760
b111101 ,
0*
00
#3780
1*
10
#3800
b111110 ,
0*
00
#3820
1*
10
#3840
b111111 ,
0*
00
#3860
1*
10
#3880
b1000000 ,
0*
00
#3900
1*
10
#3920
b1000001 ,
0*
00
#3940
1*
10
#3960
b1000010 ,
0*
00
#3980
1*
10
#4000
b1000011 ,
0*
00
#4020
1*
10
#4040
b1000100 ,
0*
00
#4060
1*
10
#4080
b1000101 ,
0*
00
#4100
1*
10
#4120
b1000110 ,
0*
00
#4140
1*
10
#4160
b1000111 ,
0*
00
#4180
1*
10
#4200
b1001000 ,
0*
00
#4220
1*
10
#4240
b1001001 ,
0*
00
#4260
1*
10
#4280
b1001010 ,
0*
00
#4300
1*
10
#4320
b1001011 ,
0*
00
#4340
1*
10
#4360
b1001100 ,
0*
00
#4380
1*
10
#4400
b1001101 ,
0*
00
#4420
1*
10
#4440
b1001110 ,
0*
00
#4460
1*
10
#4480
b1001111 ,
0*
00
#4500
1*
10
#4520
b1010000 ,
0*
00
#4540
1*
10
#4560
b1010001 ,
0*
00
#4580
1*
10
#4600
b1010010 ,
0*
00
#4620
1*
10
#4640
b1010011 ,
0*
00
#4660
1*
10
#4680
b1010100 ,
0*
00
#4700
1*
10
#4720
b1010101 ,
0*
00
#4740
1*
10
#4760
b1010110 ,
0*
00
#4780
1*
10
#4800
b1010111 ,
0*
00
#4820
1*
10
#4840
b1011000 ,
0*
00
#4860
1*
10
#4880
b1011001 ,
0*
00
#4900
1*
10
#4920
b1011010 ,
0*
00
#4940
1*
10
#4960
b1011011 ,
0*
00
#4980
1*
10
#5000
b1011100 ,
0*
00
#5020
1*
10
#5040
b1011101 ,
0*
00
#5060
1*
10
#5080
b1011110 ,
0*
00
#5100
1*
10
#5120
b1011111 ,
0*
00
#5140
1*
10
#5160
b1100000 ,
0*
00
#5180
1*
10
#5200
b1100001 ,
0*
00
#5220
1*
10
#5240
b1100010 ,
0*
00
#5260
1*
10
#5280
b1100011 ,
0*
00
#5300
1*
10
#5320
b1100100 ,
0*
00
#5340
1*
10
#5360
b1100101 ,
0*
00
#5380
1*
10
#5400
b1100110 ,
0*
00
#5420
1*
10
#5440
b1100111 ,
0*
00
#5460
1*
10
#5480
b1101000 ,
0*
00
#5500
1*
10
#5520
b1101001 ,
0*
00
#5540
1*
10
#5560
b1101010 ,
0*
00
#5580
1*
10
#5600
b1101011 ,
0*
00
#5620
1*
10
#5640
b1101100 ,
0*
00
#5660
1*
10
#5680
b1101101 ,
0*
00
#5700
1*
10
#5720
b1101110 ,
0*
00
#5740
1*
10
#5760
b1101111 ,
0*
00
#5780
1*
10
#5800
b1110000 ,
0*
00
#5820
1*
10
#5840
b1110001 ,
0*
00
#5860
1*
10
#5880
b1110010 ,
0*
00
#5900
1*
10
#5920
b1110011 ,
0*
00
#5940
1*
10
#5960
b1110100 ,
0*
00
#5980
1*
10
#6000
b1110101 ,
0*
00
#6020
1*
10
#6040
b1110110 ,
0*
00
#6060
1*
10
#6080
b1110111 ,
0*
00
#6100
1*
10
#6120
b1111000 ,
0*
00
#6140
1*
10
#6160
b1111001 ,
0*
00
#6180
1*
10
#6200
b1111010 ,
0*
00
#6220
1*
10
#6240
b1111011 ,
0*
00
#6260
1*
10
#6280
b1111100 ,
0*
00
#6300
1*
10
#6320
b1111101 ,
0*
00
#6340
1*
10
#6360
b1111110 ,
0*
00
#6380
1*
10
#6400
b1111111 ,
0*
00
#6420
1*
10
#6440
b10000000 ,
0*
00
#6460
1*
10
#6480
b10000001 ,
0*
00
#6500
1*
10
#6520
b10000010 ,
0*
00
#6540
1*
10
#6560
b10000011 ,
0*
00
#6580
1*
10
#6600
0:
0(
b0 6
b0 "
b100000 7
b0 9
b0 ;
1#
b0 !
b0 1
b0 +
b0 2
0-
03
0.
04
b10000100 ,
0*
00
#6620
b100000 7
1*
10
#6640
b1000001 +
b1000001 2
1/
15
1.
14
0*
00
#6660
1%
b1 ;
0#
b1 !
b1 1
1*
10
#6680
b100010 +
b100010 2
0*
00
#6700
b10 ;
b10 !
b10 1
1*
10
#6720
b1111101 +
b1111101 2
0*
00
#6740
0%
b11 ;
b11 !
b11 1
1*
10
#6760
b11111111 +
b11111111 2
0*
00
#6780
b100 ;
b100 !
b100 1
1*
10
#6800
b111010 +
b111010 2
0*
00
#6820
b101 ;
b101 !
b101 1
1*
10
#6840
1)
b10011001 +
b10011001 2
1-
13
0*
00
#6860
b1 9
b1000001 6
b1000001 "
b110 ;
b101 !
b101 1
1*
10
#6880
b10000110 +
b10000110 2
0*
00
#6900
b10 9
b100010 6
b100010 "
b111 ;
b101 !
b101 1
1*
10
#6920
b10111100 +
b10111100 2
0*
00
